01-01-2022,002222,Oleg
01-02-2021,232323,Oleg
02-02-2021,124512,Walter
20-11-2020,124124,John
20-10-2019,202912,Walter
01-11-2020,123123,Oleg
14-07-2021,124124,Oleg
14-07-2021,123123,Oleg
14-07-2021,123123,Oleg
14-07-2021,555555,Oleg
14-07-2021,123123,Oleg